"Type","Buy","Cur.","Sell","Cur.","Fee","Cur.","Exchange","Group","Comment","Date"
"Trade","10100.00000000","USD","0.50000000","BTC","","","","","","2019-09-15 17:24:19"
"Trade","10200.00000000","USD","1.00000000","BTC","","","","","","2019-09-15 14:58:29"
"Trade","1.00000000","BTC","5000.00000000","USD","","","","","","2019-06-23 17:24:19"
"Trade","1.00000000","BTC","10000.00000000","USD","","","","","","2019-06-22 14:53:00"